{
  "data": {
    "album": {
      "title": "DEF",
      "artist_name": "ABC",
      "tracks_count": 21,
      "total_duration": "91:56",
      "genre": "Rock",
      "year": 2002,
      "cover_url": "http://localhost:3000/uploads/album/cover/1/ABC--DEF.jpg"
    },
    "tracks": [
      {
        "id": 1,
        "title": "Track 1",
        "number": 1,
        "duration": "4:22"
      },
      {
        "id": 2,
        "title": "Track 2",
        "number": 2,
        "duration": "4:34"
      },
      {
        "id": 3,
        "title": "Track 3",
        "number": 3,
        "duration": "3:53"
      },
      {
        "id": 4,
        "title": "Track 4",
        "number": 4,
        "duration": "3:52"
      },
      {
        "id": 5,
        "title": "Track 5",
        "number": 5,
        "duration": "6:22"
      },
      {
        "id": 6,
        "title": "Track 6",
        "number": 6,
        "duration": "4:06"
      },
      {
        "id": 7,
        "title": "Track 7",
        "number": 7,
        "duration": "5:39"
      },
      {
        "id": 8,
        "title": "Track 8",
        "number": 8,
        "duration": "4:44"
      },
      {
        "id": 9,
        "title": "Track 9",
        "number": 9,
        "duration": "4:19"
      },
      {
        "id": 10,
        "title": "Track 10",
        "number": 10,
        "duration": "4:04"
      },
      {
        "id": 11,
        "title": "Track 11",
        "number": 11,
        "duration": "4:22"
      },
      {
        "id": 12,
        "title": "Track 12",
        "number": 12,
        "duration": "4:34"
      },
      {
        "id": 13,
        "title": "Track 13",
        "number": 13,
        "duration": "3:53"
      },
      {
        "id": 14,
        "title": "Track 14",
        "number": 14,
        "duration": "3:52"
      },
      {
        "id": 15,
        "title": "Track 15",
        "number": 15,
        "duration": "6:22"
      },
      {
        "id": 16,
        "title": "Track 16",
        "number": 16,
        "duration": "4:06"
      },
      {
        "id": 17,
        "title": "Track 17",
        "number": 17,
        "duration": "5:39"
      },
      {
        "id": 18,
        "title": "Track 18",
        "number": 18,
        "duration": "4:44"
      },
      {
        "id": 19,
        "title": "Track 19",
        "number": 19,
        "duration": "4:19"
      },
      {
        "id": 20,
        "title": "Track 20",
        "number": 20,
        "duration": "4:04"
      },
      {
        "id": 21,
        "title": "Track 21",
        "number": 21,
        "duration": "0:06"
      }
    ],
    "comments": [
      {
        "id": 1,
        "body": "Comment 1",
        "created_at": "<time datetime=\"2018-06-28T08:56:53Z\" data-local=\"time-ago\">June 28, 2018  8:56am</time>",
        "user_name": "fermin_gottlieb83",
        "user_slug": "fermin_gottlieb83",
        "gravatar_url": "https://gravatar.com/avatar/e16475b708a5b231b5fdf71ab3577761?s=80&r=pg&d=identicon"
      },
      {
        "id": 2,
        "body": "Comment 2",
        "created_at": "<time datetime=\"2018-06-23T09:25:36Z\" data-local=\"time-ago\">June 23, 2018  9:25am</time>",
        "user_name": "anahi26",
        "user_slug": "anahi26",
        "gravatar_url": "https://gravatar.com/avatar/61ac49478ea8c40129c5abc30153880d?s=80&r=pg&d=identicon"
      },
      {
        "id": 3,
        "body": "Comment 3",
        "created_at": "<time datetime=\"2018-05-28T08:27:27Z\" data-local=\"time-ago\">May 28, 2018  8:27am</time>",
        "user_name": "rosalind_mante11",
        "user_slug": "rosalind_mante11",
        "gravatar_url": "https://gravatar.com/avatar/06ecce7fb50e191bcdfe06e324882fe0?s=80&r=pg&d=identicon"
      },
      {
        "id": 4,
        "body": "Comment 4",
        "created_at": "<time datetime=\"2018-05-10T12:10:03Z\" data-local=\"time-ago\">May 10, 2018 12:10pm</time>",
        "user_name": "devin16",
        "user_slug": "devin16",
        "gravatar_url": "https://gravatar.com/avatar/22d70f1821be0b4669a186e4ab18ff51?s=80&r=pg&d=identicon"
      },
      {
        "id": 5,
        "body": "Comment 5",
        "created_at": "<time datetime=\"2018-04-30T02:03:15Z\" data-local=\"time-ago\">April 30, 2018  2:03am</time>",
        "user_name": "lexi_jones94",
        "user_slug": "lexi_jones94",
        "gravatar_url": "https://gravatar.com/avatar/9a8ad7cda90d364b0024667ecdf773d6?s=80&r=pg&d=identicon"
      },
      {
        "id": 6,
        "body": "Comment 6",
        "created_at": "<time datetime=\"2018-04-26T08:45:34Z\" data-local=\"time-ago\">April 26, 2018  8:45am</time>",
        "user_name": "devin16",
        "user_slug": "devin16",
        "gravatar_url": "https://gravatar.com/avatar/22d70f1821be0b4669a186e4ab18ff51?s=80&r=pg&d=identicon"
      },
      {
        "id": 7,
        "body": "Comment 7",
        "created_at": "<time datetime=\"2018-04-09T20:05:33Z\" data-local=\"time-ago\">April  9, 2018  8:05pm</time>",
        "user_name": "ernesto31",
        "user_slug": "ernesto31",
        "gravatar_url": "https://gravatar.com/avatar/d2ab58d215ee0d4bb9121f757e483944?s=80&r=pg&d=identicon"
      },
      {
        "id": 8,
        "body": "Comment 8",
        "created_at": "<time datetime=\"2018-03-27T00:27:27Z\" data-local=\"time-ago\">March 27, 2018 12:27am</time>",
        "user_name": "rollin50",
        "user_slug": "rollin50",
        "gravatar_url": "https://gravatar.com/avatar/503710afd68777eeb329e1be844c140e?s=80&r=pg&d=identicon"
      },
      {
        "id": 9,
        "body": "Comment 9",
        "created_at": "<time datetime=\"2018-03-15T05:38:12Z\" data-local=\"time-ago\">March 15, 2018  5:38am</time>",
        "user_name": "dawn_parker79",
        "user_slug": "dawn_parker79",
        "gravatar_url": "https://gravatar.com/avatar/3fff9f36bf92b24cd899eeb6cea05ff6?s=80&r=pg&d=identicon"
      },
      {
        "id": 10,
        "body": "Comment 10",
        "created_at": "<time datetime=\"2018-03-14T19:37:15Z\" data-local=\"time-ago\">March 14, 2018  7:37pm</time>",
        "user_name": "kennith_rolfson66",
        "user_slug": "kennith_rolfson66",
        "gravatar_url": "https://gravatar.com/avatar/48c30a3c1f69a8ebba162afbcaab7c67?s=80&r=pg&d=identicon"
      },
      {
        "id": 11,
        "body": "Comment 11",
        "created_at": "<time datetime=\"2018-03-13T14:42:54Z\" data-local=\"time-ago\">March 13, 2018  2:42pm</time>",
        "user_name": "elmore16",
        "user_slug": "elmore16",
        "gravatar_url": "https://gravatar.com/avatar/ba14e202ce8ffea35bcf9971bf0d6e85?s=80&r=pg&d=identicon"
      },
      {
        "id": 12,
        "body": "Comment 12",
        "created_at": "<time datetime=\"2018-02-28T21:42:35Z\" data-local=\"time-ago\">February 28, 2018  9:42pm</time>",
        "user_name": "bettie54",
        "user_slug": "bettie54",
        "gravatar_url": "https://gravatar.com/avatar/62279fdb4a74d49ae14c5bdbfbbef55f?s=80&r=pg&d=identicon"
      },
      {
        "id": 13,
        "body": "Comment 13",
        "created_at": "<time datetime=\"2018-02-24T14:00:09Z\" data-local=\"time-ago\">February 24, 2018  2:00pm</time>",
        "user_name": "jennifer28",
        "user_slug": "jennifer28",
        "gravatar_url": "https://gravatar.com/avatar/d7de8c9ee403ef8d8403429ba3c4ba11?s=80&r=pg&d=identicon"
      },
      {
        "id": 14,
        "body": "Comment 14",
        "created_at": "<time datetime=\"2018-02-19T19:11:12Z\" data-local=\"time-ago\">February 19, 2018  7:11pm</time>",
        "user_name": "ally_shields57",
        "user_slug": "ally_shields57",
        "gravatar_url": "https://gravatar.com/avatar/f5a520fe87dae7dbf7ce8869eda7af0f?s=80&r=pg&d=identicon"
      },
      {
        "id": 15,
        "body": "Comment 15",
        "created_at": "<time datetime=\"2018-02-02T21:59:06Z\" data-local=\"time-ago\">February  2, 2018  9:59pm</time>",
        "user_name": "orlando36",
        "user_slug": "orlando36",
        "gravatar_url": "https://gravatar.com/avatar/55629d25652543219eabe63afb23be16?s=80&r=pg&d=identicon"
      },
      {
        "id": 16,
        "body": "Comment 16",
        "created_at": "<time datetime=\"2018-01-23T17:46:36Z\" data-local=\"time-ago\">January 23, 2018  5:46pm</time>",
        "user_name": "jennifer28",
        "user_slug": "jennifer28",
        "gravatar_url": "https://gravatar.com/avatar/d7de8c9ee403ef8d8403429ba3c4ba11?s=80&r=pg&d=identicon"
      },
      {
        "id": 17,
        "body": "Comment 17",
        "created_at": "<time datetime=\"2018-01-04T06:53:20Z\" data-local=\"time-ago\">January  4, 2018  6:53am</time>",
        "user_name": "leonel_kertzmann31",
        "user_slug": "leonel_kertzmann31",
        "gravatar_url": "https://gravatar.com/avatar/7623bc3892c4bf9c2571447e23ec565f?s=80&r=pg&d=identicon"
      },
      {
        "id": 18,
        "body": "Comment 18",
        "created_at": "<time datetime=\"2018-01-01T19:59:24Z\" data-local=\"time-ago\">January  1, 2018  7:59pm</time>",
        "user_name": "rollin50",
        "user_slug": "rollin50",
        "gravatar_url": "https://gravatar.com/avatar/503710afd68777eeb329e1be844c140e?s=80&r=pg&d=identicon"
      },
      {
        "id": 19,
        "body": "Comment 19",
        "created_at": "<time datetime=\"2017-12-27T19:28:39Z\" data-local=\"time-ago\">December 27, 2017  7:28pm</time>",
        "user_name": "arvel_ko76",
        "user_slug": "arvel_ko76",
        "gravatar_url": "https://gravatar.com/avatar/0dd9e5ca83217d75bc53ae4fe0d76e06?s=80&r=pg&d=identicon"
      },
      {
        "id": 20,
        "body": "Comment 20",
        "created_at": "<time datetime=\"2017-12-03T00:09:56Z\" data-local=\"time-ago\">December  3, 2017 12:09am</time>",
        "user_name": "jennifer28",
        "user_slug": "jennifer28",
        "gravatar_url": "https://gravatar.com/avatar/d7de8c9ee403ef8d8403429ba3c4ba11?s=80&r=pg&d=identicon"
      },
      {
        "id": 21,
        "body": "Comment 21",
        "created_at": "<time datetime=\"2017-12-02T10:28:32Z\" data-local=\"time-ago\">December  2, 2017 10:28am</time>",
        "user_name": "iva83",
        "user_slug": "iva83",
        "gravatar_url": "https://gravatar.com/avatar/3ab954c11fb693fc8f966e9b5ab9f205?s=80&r=pg&d=identicon"
      },
      {
        "id": 22,
        "body": "Comment 22",
        "created_at": "<time datetime=\"2017-11-23T07:57:12Z\" data-local=\"time-ago\">November 23, 2017  7:57am</time>",
        "user_name": "winfield1",
        "user_slug": "winfield1",
        "gravatar_url": "https://gravatar.com/avatar/7f9f0846a96f762c757db392bd6a1588?s=80&r=pg&d=identicon"
      },
      {
        "id": 23,
        "body": "Comment 23",
        "created_at": "<time datetime=\"2017-11-17T18:19:48Z\" data-local=\"time-ago\">November 17, 2017  6:19pm</time>",
        "user_name": "claria_klein19",
        "user_slug": "claria_klein19",
        "gravatar_url": "https://gravatar.com/avatar/975cff4dfaf3813a2c8803e751353808?s=80&r=pg&d=identicon"
      },
      {
        "id": 24,
        "body": "Comment 24",
        "created_at": "<time datetime=\"2017-11-04T04:31:56Z\" data-local=\"time-ago\">November  4, 2017  4:31am</time>",
        "user_name": "leonel_kertzmann31",
        "user_slug": "leonel_kertzmann31",
        "gravatar_url": "https://gravatar.com/avatar/7623bc3892c4bf9c2571447e23ec565f?s=80&r=pg&d=identicon"
      },
      {
        "id": 25,
        "body": "Last Comment 25",
        "created_at": "<time datetime=\"2017-11-01T12:26:44Z\" data-local=\"time-ago\">November  1, 2017 12:26pm</time>",
        "user_name": "simeon59",
        "user_slug": "simeon59",
        "gravatar_url": "https://gravatar.com/avatar/188deba48d739c0287b061713d2c16be?s=80&r=pg&d=identicon"
      }
    ],
    "comments_pagination": {
      "current_page": 1,
      "next_page": 2,
      "prev_page": null,
      "total_pages": 2,
      "total_count": 36
    }
  }
}
