{
  "data": {
    "artists": [
      {
        "id": 1,
        "name": "ABC",
        "description": "",
        "slug": "abc",
        "albums_count": 2,
        "comments_count": 50
      },
      {
        "id": 2,
        "name": "DEF",
        "description": "",
        "slug": "def",
        "albums_count": 4,
        "comments_count": 2
      }
    ],
    "pagination": {
      "current_page": 1,
      "next_page": 2,
      "prev_page": null,
      "total_pages": 2,
      "total_count": 4
    }
  }
}
