{
  "data": {
    "comments": [
      {
        "id": 26,
        "body": "Comment 26",
        "created_at": "<time datetime=\"2017-10-23T05:15:52Z\" data-local=\"time-ago\">October 23, 2017  5:15am</time>",
        "user_name": "dawn_parker79",
        "user_slug": "dawn_parker79",
        "gravatar_url": "https://gravatar.com/avatar/3fff9f36bf92b24cd899eeb6cea05ff6?s=80&r=pg&d=identicon"
      },
      {
        "id": 27,
        "body": "Comment 27",
        "created_at": "<time datetime=\"2017-10-23T04:49:41Z\" data-local=\"time-ago\">October 23, 2017  4:49am</time>",
        "user_name": "dawn_parker79",
        "user_slug": "dawn_parker79",
        "gravatar_url": "https://gravatar.com/avatar/3fff9f36bf92b24cd899eeb6cea05ff6?s=80&r=pg&d=identicon"
      },
      {
        "id": 28,
        "body": "Comment 28",
        "created_at": "<time datetime=\"2017-10-19T16:36:48Z\" data-local=\"time-ago\">October 19, 2017  4:36pm</time>",
        "user_name": "kennith_rolfson66",
        "user_slug": "kennith_rolfson66",
        "gravatar_url": "https://gravatar.com/avatar/48c30a3c1f69a8ebba162afbcaab7c67?s=80&r=pg&d=identicon"
      },
      {
        "id": 29,
        "body": "Comment 29",
        "created_at": "<time datetime=\"2017-10-12T11:18:41Z\" data-local=\"time-ago\">October 12, 2017 11:18am</time>",
        "user_name": "dovie12",
        "user_slug": "dovie12",
        "gravatar_url": "https://gravatar.com/avatar/c23e6a3d510914c71aec87caf9351be3?s=80&r=pg&d=identicon"
      },
      {
        "id": 30,
        "body": "Comment 30",
        "created_at": "<time datetime=\"2017-10-05T04:03:04Z\" data-local=\"time-ago\">October  5, 2017  4:03am</time>",
        "user_name": "georgette77",
        "user_slug": "georgette77",
        "gravatar_url": "https://gravatar.com/avatar/2ef194dea74fdb64a5fe9943f77ee856?s=80&r=pg&d=identicon"
      },
      {
        "id": 31,
        "body": "Comment 31",
        "created_at": "<time datetime=\"2017-10-04T19:11:08Z\" data-local=\"time-ago\">October  4, 2017  7:11pm</time>",
        "user_name": "bettie54",
        "user_slug": "bettie54",
        "gravatar_url": "https://gravatar.com/avatar/62279fdb4a74d49ae14c5bdbfbbef55f?s=80&r=pg&d=identicon"
      },
      {
        "id": 32,
        "body": "Comment 32",
        "created_at": "<time datetime=\"2017-09-28T11:20:18Z\" data-local=\"time-ago\">September 28, 2017 11:20am</time>",
        "user_name": "dovie12",
        "user_slug": "dovie12",
        "gravatar_url": "https://gravatar.com/avatar/c23e6a3d510914c71aec87caf9351be3?s=80&r=pg&d=identicon"
      },
      {
        "id": 33,
        "body": "Comment 33",
        "created_at": "<time datetime=\"2017-09-26T08:06:25Z\" data-local=\"time-ago\">September 26, 2017  8:06am</time>",
        "user_name": "tomasa5",
        "user_slug": "tomasa5",
        "gravatar_url": "https://gravatar.com/avatar/d86b00380f9299057150f4af1f59b69c?s=80&r=pg&d=identicon"
      },
      {
        "id": 34,
        "body": "Comment 34",
        "created_at": "<time datetime=\"2017-09-25T03:54:26Z\" data-local=\"time-ago\">September 25, 2017  3:54am</time>",
        "user_name": "katlynn33",
        "user_slug": "katlynn33",
        "gravatar_url": "https://gravatar.com/avatar/b96403bfd9865199a24a955e602c938d?s=80&r=pg&d=identicon"
      },
      {
        "id": 35,
        "body": "Comment 35",
        "created_at": "<time datetime=\"2017-09-21T23:41:38Z\" data-local=\"time-ago\">September 21, 2017 11:41pm</time>",
        "user_name": "tomasa5",
        "user_slug": "tomasa5",
        "gravatar_url": "https://gravatar.com/avatar/d86b00380f9299057150f4af1f59b69c?s=80&r=pg&d=identicon"
      },
      {
        "id": 36,
        "body": "Comment 36",
        "created_at": "<time datetime=\"2017-09-12T01:47:55Z\" data-local=\"time-ago\">September 12, 2017  1:47am</time>",
        "user_name": "iva83",
        "user_slug": "iva83",
        "gravatar_url": "https://gravatar.com/avatar/3ab954c11fb693fc8f966e9b5ab9f205?s=80&r=pg&d=identicon"
      }
    ],
    "pagination": {
      "current_page": 2,
      "next_page": null,
      "prev_page": 1,
      "total_pages": 2,
      "total_count": 36
    }
  }
}
