{
  "data": {
    "comments": [
      {
        "id": 1,
        "body": "First comment",
        "created_at": "<time datetime=\"2018-05-09T04:05:00Z\" data-local=\"time-ago\">May  9, 2018  4:05am</time>",
        "user_name": "joe",
        "user_slug": "joe",
        "gravatar_url": "https://gravatar.com/avatar/88884e5cb90c02031f031bc4760fcf69?s=80&r=pg&d=identicon",
        "for": "Album",
        "artist": "ABC",
        "name": "ABC",
        "path": "artist/abc/album/abc"
      },
      {
        "id": 2,
        "body": "Second comment",
        "created_at": "<time datetime=\"2018-05-05T05:34:56Z\" data-local=\"time-ago\">May  5, 2018  5:34am</time>",
        "user_name": "joe",
        "user_slug": "joe",
        "gravatar_url": "https://gravatar.com/avatar/88884e5cb90c02031f031bc4760fcf69?s=80&r=pg&d=identicon",
        "for": "Album",
        "artist": "DEF",
        "name": "DEF",
        "path": "artist/def/album/def"
      }
    ],
    "pagination": {
      "current_page": 1,
      "next_page": 2,
      "prev_page": null,
      "total_pages": 2,
      "total_count": 3
    }
  }
}
